{
    "mcp3301" : {
        "telemetry_points" : [
            {"name" : "Raw Value", "data_type" : "int16_t"}
        ],
        "sub_devices" : []
    },
    "mcp3304" : {
        "telemetry_points" : [
            {"name" : "Diff Ch 0 Value", "data_type" : "int16_t"},
            {"name" : "Diff Ch 1 Value", "data_type" : "int16_t"},
            {"name" : "Diff Ch 2 Value", "data_type" : "int16_t"},
            {"name" : "Diff Ch 3 Value", "data_type" : "int16_t"}
        ],
        "sub_devices" : []
    },
    "shift_expander" : {
        "telemetry_points" : [
            {"name": "State", "data_type" : "uint32_t"}
        ],
        "sub_devices" : []
    },
    "moisture_sensor" : {
        "telemetry_points" : [
            {"name": "Raw Resistance",             "data_type" : "int32_t"},
            {"name": "Estimated Moisture Content", "data_type" : "int32_t"}
        ],
        "sub_devices" : []
    },
    "task" : {
        "telemetry_points" : [
            {"name": "Min Runtime ns", "data_type" : "uint64_t"},
            {"name": "Max Runtime ns", "data_type" : "uint64_t"},
            {"name": "Ave Runtime ns", "data_type" : "uint64_t"}
        ],
        "sub_devices" : []
    },
    "garden_card" : {
        "telemetry_points" : [
            {"name" : "LED Power Line 0",    "data_type" : "uint8_t"},
            {"name" : "LED Power Line 1",    "data_type" : "uint8_t"},
            {"name" : "LED Power Line 2",    "data_type" : "uint8_t"},
            {"name" : "LED Power Line 3",    "data_type" : "uint8_t"},
            {"name" : "LED Power Line 4",    "data_type" : "uint8_t"},
            {"name" : "LED Power Line 5",    "data_type" : "uint8_t"},
            {"name" : "Water Valve State 0", "data_type" : "uint8_t"},
            {"name" : "Water Valve State 1", "data_type" : "uint8_t"},
            {"name" : "Water Valve State 2", "data_type" : "uint8_t"},
            {"name" : "Water Valve State 3", "data_type" : "uint8_t"}
        ]
    }
}